// Jest Snapshot v1, https://goo.gl/fbAQLP

exports[`it renders 1`] = `
<Memo(App)
  getAppData={[Function]}
  store={
    Object {
      "clearActions": [Function],
      "dispatch": [Function],
      "getActions": [Function],
      "getState": [Function],
      "replaceReducer": [Function],
      "subscribe": [Function],
    }
  }
  updateMovieRating={[Function]}
/>
`;
